{
  "name": "space-in-ng",
  "$schema": "../../node_modules/nx/schemas/project-schema.json",
  "projectType": "application",
  "prefix": "space-in-ng",
  "sourceRoot": "apps/space-in-ng/src",
  "tags": [],
  "targets": {
    "build": {
      "executor": "@angular-devkit/build-angular:browser",
      "outputs": ["{options.outputPath}"],
      "options": {
        "outputPath": "dist/apps/space-in-ng",
        "index": "apps/space-in-ng/src/index.html",
        "main": "apps/space-in-ng/src/main.ts",
        "polyfills": ["zone.js"],
        "tsConfig": "apps/space-in-ng/tsconfig.app.json",
        "assets": [
          "apps/space-in-ng/src/favicon.ico",
          "apps/space-in-ng/src/assets"
        ],
        "styles": ["apps/space-in-ng/src/styles.scss"],
        "scripts": []
      },
      "configurations": {
        "production": {
          "budgets": [
            {
              "type": "initial",
              "maximumWarning": "500kb",
              "maximumError": "1mb"
            },
            {
              "type": "anyComponentStyle",
              "maximumWarning": "2kb",
              "maximumError": "4kb"
            }
          ],
          "outputHashing": "all"
        },
        "development": {
          "buildOptimizer": false,
          "optimization": false,
          "vendorChunk": true,
          "extractLicenses": false,
          "sourceMap": true,
          "namedChunks": true
        }
      },
      "defaultConfiguration": "production"
    },
    "serve": {
      "executor": "@angular-devkit/build-angular:dev-server",
      "configurations": {
        "production": {
          "browserTarget": "space-in-ng:build:production"
        },
        "development": {
          "browserTarget": "space-in-ng:build:development"
        }
      },
      "defaultConfiguration": "development"
    },
    "extract-i18n": {
      "executor": "@angular-devkit/build-angular:extract-i18n",
      "options": {
        "browserTarget": "space-in-ng:build"
      }
    },
    "lint": {
      "executor": "@nx/linter:eslint",
      "outputs": ["{options.outputFile}"],
      "options": {
        "lintFilePatterns": [
          "apps/space-in-ng/**/*.ts",
          "apps/space-in-ng/**/*.html"
        ]
      }
    },
    "test": {
      "executor": "@nx/jest:jest",
      "outputs": ["{workspaceRoot}/coverage/{projectRoot}"],
      "options": {
        "jestConfig": "apps/space-in-ng/jest.config.ts",
        "passWithNoTests": true
      },
      "configurations": {
        "ci": {
          "ci": true,
          "codeCoverage": true
        }
      }
    },
    "serve-static": {
      "executor": "@nx/web:file-server",
      "options": {
        "buildTarget": "space-in-ng:build"
      }
    }
  }
}
