{
  "name": "core",
  "$schema": "../../node_modules/nx/schemas/project-schema.json",
  "sourceRoot": "libs/core/src",
  "prefix": "space-in-ng",
  "tags": [],
  "projectType": "library",
  "targets": {
    "test": {
      "executor": "@nx/jest:jest",
      "outputs": ["{workspaceRoot}/coverage/{projectRoot}"],
      "options": {
        "jestConfig": "libs/core/jest.config.ts",
        "passWithNoTests": true
      },
      "configurations": {
        "ci": {
          "ci": true,
          "codeCoverage": true
        }
      }
    },
    "lint": {
      "executor": "@nx/linter:eslint",
      "outputs": ["{options.outputFile}"],
      "options": {
        "lintFilePatterns": ["libs/core/**/*.ts", "libs/core/**/*.html"]
      }
    }
  }
}
